{
  "projectType": "application",
  "root": "apps/hostapp",
  "sourceRoot": "apps/hostapp/src",
  "prefix": "host",
  "targets": {
    "build": {
      "executor": "@nrwl/angular:webpack-browser",
      "outputs": ["{options.outputPath}"],
      "options": {
        "outputPath": "dist/apps/hostapp",
        "index": "apps/hostapp/src/index.html",
        "main": "apps/hostapp/src/main.ts",
        "polyfills": "apps/hostapp/src/polyfills.ts",
        "tsConfig": "apps/hostapp/tsconfig.app.json",
        "inlineStyleLanguage": "scss",
        "assets": ["apps/hostapp/src/favicon.ico", "apps/hostapp/src/assets"],
        "styles": ["apps/hostapp/src/styles.scss"],
        "scripts": [],
        "customWebpackConfig": {
          "path": "apps/hostapp/webpack.config.js"
        }
      },
      "configurations": {
        "production": {
          "budgets": [
            {
              "type": "initial",
              "maximumWarning": "500kb",
              "maximumError": "1mb"
            },
            {
              "type": "anyComponentStyle",
              "maximumWarning": "2kb",
              "maximumError": "4kb"
            }
          ],
          "fileReplacements": [
            {
              "replace": "apps/hostapp/src/environments/environment.ts",
              "with": "apps/hostapp/src/environments/environment.prod.ts"
            }
          ],
          "outputHashing": "all",
          "customWebpackConfig": {
            "path": "apps/hostapp/webpack.prod.config.js"
          }
        },
        "development": {
          "buildOptimizer": false,
          "optimization": false,
          "vendorChunk": true,
          "extractLicenses": false,
          "sourceMap": true,
          "namedChunks": true
        }
      },
      "defaultConfiguration": "production"
    },
    "serve": {
      "executor": "@nrwl/angular:webpack-server",
      "configurations": {
        "production": {
          "browserTarget": "hostapp:build:production"
        },
        "development": {
          "browserTarget": "hostapp:build:development"
        }
      },
      "defaultConfiguration": "development",
      "options": {
        "port": 4201,
        "publicHost": "http://localhost:4201"
      }
    },
    "extract-i18n": {
      "executor": "@angular-devkit/build-angular:extract-i18n",
      "options": {
        "browserTarget": "hostapp:build"
      }
    },
    "lint": {
      "executor": "@nrwl/linter:eslint",
      "options": {
        "lintFilePatterns": [
          "apps/hostapp/src/**/*.ts",
          "apps/hostapp/src/**/*.html"
        ]
      }
    },
    "serve-mfe": {
      "executor": "@nrwl/workspace:run-commands",
      "options": {
        "commands": [
          "nx serve remote-b",
          "nx serve remote-a",
          "nx serve hostapp"
        ]
      }
    }
  },
  "tags": []
}
